{
	"info": {
		"_postman_id": "6a30f172-25c5-4da5-b101-203069d764db",
		"name": "ms-meli-rest Copy",
		"schema": "https://schema.getpostman.com/json/collection/v2.1.0/collection.json"
	},
	"item": [
		{
			"name": "Meli_refactoring_Automatizado",
			"item": [
				{
					"name": "order_reception",
					"event": [
						{
							"listen": "test",
							"script": {
								"exec": [
									"var response = pm.response.json();",
									"pm.environment.set(\"order\", response.orders[0].order);",
									"",
									"pm.test(\"Status code is 200\", function () {",
									"    pm.response.to.have.status(200);",
									"});",
									"pm.test(\"Response time is less than 200ms\", function () {",
									"    pm.expect(pm.response.responseTime).to.be.below(200);",
									"});",
									"",
									"setTimeout(()=>{},2000)"
								],
								"type": "text/javascript"
							}
						},
						{
							"listen": "prerequest",
							"script": {
								"exec": [
									"pm.globals.set('randomNumer',_.random(1, 10000000000000000));"
								],
								"type": "text/javascript"
							}
						}
					],
					"request": {
						"method": "POST",
						"header": [
							{
								"key": "apiKey",
								"value": "{{apiKey}}",
								"type": "text"
							}
						],
						"body": {
							"mode": "raw",
							"raw": "{\n    \"orders\": [\n        \"{{randomNumer}}\"\n    ]\n}",
							"options": {
								"raw": {
									"language": "json"
								}
							}
						},
						"url": {
							"raw": "https://api.test.pickit.net/index.php/apiV2/orders/point/92/dropoff/reception",
							"protocol": "https",
							"host": [
								"api",
								"test",
								"pickit",
								"net"
							],
							"path": [
								"index.php",
								"apiV2",
								"orders",
								"point",
								"92",
								"dropoff",
								"reception"
							]
						}
					},
					"response": []
				},
				{
					"name": "getTransaction",
					"event": [
						{
							"listen": "prerequest",
							"script": {
								"exec": [
									"/*",
									"pm.environment.set(\"order\", \"variable_value\");",
									"pm.environment.set(\"contador\", 0);",
									"*/",
									""
								],
								"type": "text/javascript"
							}
						},
						{
							"listen": "test",
							"script": {
								"exec": [
									"var response = pm.response.json();\r",
									"pm.environment.set(\"pickitCode\", response.result[0].pickitNumber);\r",
									"\r",
									"pm.test(\"Status code is 200\", function () {\r",
									"    pm.response.to.have.status(200);\r",
									"});\r",
									""
								],
								"type": "text/javascript"
							}
						}
					],
					"request": {
						"method": "GET",
						"header": [
							{
								"key": "apiKey",
								"type": "text",
								"value": "GDMQ7EVO2K"
							},
							{
								"key": "token",
								"type": "text",
								"value": "{{token}}"
							}
						],
						"url": {
							"raw": "https://api.test.pickit.net/apiV2/transaction?filter.order={{order}}",
							"protocol": "https",
							"host": [
								"api",
								"test",
								"pickit",
								"net"
							],
							"path": [
								"apiV2",
								"transaction"
							],
							"query": [
								{
									"key": "filter.order",
									"value": "{{order}}"
								}
							]
						}
					},
					"response": []
				},
				{
					"name": "stateNotification_PickitToMeli",
					"event": [
						{
							"listen": "prerequest",
							"script": {
								"exec": [
									"setTimeout(()=>{},3000)"
								],
								"type": "text/javascript"
							}
						}
					],
					"request": {
						"method": "POST",
						"header": [
							{
								"key": "Content-Type",
								"value": "application/json",
								"type": "text"
							}
						],
						"body": {
							"mode": "raw",
							"raw": "{\n    \"token\": \"{{token}}\",\n    \"pickitCode\": \"{{pickitCode}}\",\n    \"state\": {\n        \"name\": \"En Punto Drop-off\",\n        \"id\": 401,\n        \"tag\": \"inDropOffPoint\",\n        \"subState\": null\n    },\n    \"order\": \"{{order}}\",\n    \"points\": [\n        {\n            \"type\": \"ORIGIN\",\n            \"id\": 92,\n            \"name\": \"Acevedo 340\",\n            \"idService\":3\n        }\n    ]\n}"
						},
						"url": {
							"raw": "https://ms.desa.pickit.net/meli/api/v1.0/shipments/notifications",
							"protocol": "https",
							"host": [
								"ms",
								"desa",
								"pickit",
								"net"
							],
							"path": [
								"meli",
								"api",
								"v1.0",
								"shipments",
								"notifications"
							]
						}
					},
					"response": []
				},
				{
					"name": "stateNotification_MeliToPickit_Recolectado",
					"event": [
						{
							"listen": "prerequest",
							"script": {
								"exec": [
									"const moment = require('moment');",
									"pm.globals.set(\"today\", moment().format(\"YYYY-MM-DDTHH:MM:SS\"));"
								],
								"type": "text/javascript"
							}
						},
						{
							"listen": "test",
							"script": {
								"exec": [
									"pm.test(\"Status code is 200\", function () {",
									"    pm.response.to.have.status(200);",
									"});",
									"pm.test(\"Response time is less than 200ms\", function () {",
									"    pm.expect(pm.response.responseTime).to.be.below(200);",
									"});",
									"",
									"setTimeout(()=>{},3000)"
								],
								"type": "text/javascript"
							}
						}
					],
					"request": {
						"method": "POST",
						"header": [],
						"body": {
							"mode": "raw",
							"raw": "{\r\n  \"carrier_information\": {\r\n    \"contract\": \"string\",\r\n    \"account\": \"string\",\r\n    \"user\": \"string\",\r\n    \"password\": \"string\",\r\n    \"client_id\": \"string\"\r\n  },\r\n  \"type\":\"picked_up\",\r\n  \"date\":\"{{today}}.000-03:00\"\r\n}\r\n",
							"options": {
								"raw": {
									"language": "json"
								}
							}
						},
						"url": {
							"raw": "https://ms.desa.pickit.net/meli/api/v1.0/shipments/{{order}}/notification",
							"protocol": "https",
							"host": [
								"ms",
								"desa",
								"pickit",
								"net"
							],
							"path": [
								"meli",
								"api",
								"v1.0",
								"shipments",
								"{{order}}",
								"notification"
							]
						}
					},
					"response": []
				},
				{
					"name": "stateTransaction_Recolectado",
					"event": [
						{
							"listen": "prerequest",
							"script": {
								"exec": [
									"/*",
									"pm.environment.set(\"order\", \"variable_value\");",
									"pm.environment.set(\"contador\", 0);",
									"*/"
								],
								"type": "text/javascript"
							}
						},
						{
							"listen": "test",
							"script": {
								"exec": [
									"pm.test(\"Cambio de estadoa Recolectado\", function () {\r",
									"    const response = pm.response.json();\r",
									"    pm.expect(response.result[0].stateName).to.eql(\"Recolectado\");\r",
									"});"
								],
								"type": "text/javascript"
							}
						}
					],
					"request": {
						"method": "GET",
						"header": [
							{
								"key": "apiKey",
								"value": "GDMQ7EVO2K",
								"type": "text"
							},
							{
								"key": "token",
								"value": "{{token}}",
								"type": "text"
							}
						],
						"url": {
							"raw": "https://api.test.pickit.net/apiV2/transaction?filter.order={{order}}",
							"protocol": "https",
							"host": [
								"api",
								"test",
								"pickit",
								"net"
							],
							"path": [
								"apiV2",
								"transaction"
							],
							"query": [
								{
									"key": "filter.order",
									"value": "{{order}}"
								}
							]
						}
					},
					"response": []
				},
				{
					"name": "stateNotification_MeliToPickit_inHub",
					"event": [
						{
							"listen": "prerequest",
							"script": {
								"exec": [
									"const moment = require('moment');",
									"pm.globals.set(\"today\", moment().format(\"YYYY-MM-DDTHH:MM:SS\"));"
								],
								"type": "text/javascript"
							}
						},
						{
							"listen": "test",
							"script": {
								"exec": [
									"pm.test(\"Status code is 200\", function () {",
									"    pm.response.to.have.status(200);",
									"});",
									"pm.test(\"Response time is less than 200ms\", function () {",
									"    pm.expect(pm.response.responseTime).to.be.below(200);",
									"});",
									"",
									"setTimeout(()=>{},3000)"
								],
								"type": "text/javascript"
							}
						}
					],
					"request": {
						"method": "POST",
						"header": [],
						"body": {
							"mode": "raw",
							"raw": "{\r\n  \"carrier_information\": {\r\n    \"contract\": \"string\",\r\n    \"account\": \"string\",\r\n    \"user\": \"string\",\r\n    \"password\": \"string\",\r\n    \"client_id\": \"string\"\r\n  },\r\n  \"type\":\"in_hub\",\r\n  \"date\":\"{{today}}.000-03:00\"\r\n}",
							"options": {
								"raw": {
									"language": "json"
								}
							}
						},
						"url": {
							"raw": "https://ms.desa.pickit.net/meli/api/v1.0/shipments/{{order}}/notification",
							"protocol": "https",
							"host": [
								"ms",
								"desa",
								"pickit",
								"net"
							],
							"path": [
								"meli",
								"api",
								"v1.0",
								"shipments",
								"{{order}}",
								"notification"
							]
						}
					},
					"response": []
				},
				{
					"name": "stateTransaction_inHub",
					"event": [
						{
							"listen": "prerequest",
							"script": {
								"exec": [
									"/*",
									"pm.environment.set(\"order\", \"variable_value\");",
									"pm.environment.set(\"contador\", 0);",
									"*/"
								],
								"type": "text/javascript"
							}
						},
						{
							"listen": "test",
							"script": {
								"exec": [
									"pm.test(\"Cambio de estado a In Hub\", function () {\r",
									"    const response = pm.response.json();\r",
									"    pm.expect(response.result[0].stateName).to.eql(\"In Hub\");\r",
									"});"
								],
								"type": "text/javascript"
							}
						}
					],
					"request": {
						"method": "GET",
						"header": [
							{
								"key": "apiKey",
								"type": "text",
								"value": "GDMQ7EVO2K"
							},
							{
								"key": "token",
								"type": "text",
								"value": "{{token}}"
							}
						],
						"url": {
							"raw": "https://api.test.pickit.net/apiV2/transaction?filter.order={{order}}",
							"protocol": "https",
							"host": [
								"api",
								"test",
								"pickit",
								"net"
							],
							"path": [
								"apiV2",
								"transaction"
							],
							"query": [
								{
									"key": "filter.order",
									"value": "{{order}}"
								}
							]
						}
					},
					"response": []
				}
			]
		},
		{
			"name": "events_news_ notifications",
			"event": [
				{
					"listen": "prerequest",
					"script": {
						"exec": [
							""
						],
						"type": "text/javascript"
					}
				},
				{
					"listen": "test",
					"script": {
						"exec": [
							""
						],
						"type": "text/javascript"
					}
				}
			],
			"request": {
				"method": "POST",
				"header": [],
				"body": {
					"mode": "raw",
					"raw": "{\r\n  \"carrier_information\": {\r\n    \"contract\": \"string\",\r\n    \"account\": \"string\",\r\n    \"user\": \"string\",\r\n    \"password\": \"string\",\r\n    \"client_id\": \"string\"\r\n  },\r\n  \"type\":\"in_hub\",\r\n  \"date\":\"2021-03-10T15:50:17.000-03:00\"\r\n}",
					"options": {
						"raw": {
							"language": "json"
						}
					}
				},
				"url": {
					"raw": "https://ms.desa.pickit.net/meli/api/v1.0/shipments/{{order}}/notification",
					"protocol": "https",
					"host": [
						"ms",
						"desa",
						"pickit",
						"net"
					],
					"path": [
						"meli",
						"api",
						"v1.0",
						"shipments",
						"{{order}}",
						"notification"
					]
				}
			},
			"response": []
		},
		{
			"name": "stateNotification_BadRequest",
			"event": [
				{
					"listen": "prerequest",
					"script": {
						"exec": [
							""
						],
						"type": "text/javascript"
					}
				}
			],
			"request": {
				"method": "POST",
				"header": [
					{
						"key": "Content-Type",
						"type": "text",
						"value": "application/json"
					}
				],
				"body": {
					"mode": "raw",
					"raw": "{\n    \"token\": \"{{token}}\",\n    \"pickitCode\": \"{{pickitCode}}\",\n    \"state\": {\n        \"name\": \"string\",          \n        \"id\": 2302,             \n        \"tag\": \"inDropOffPoint\",\n        \"subState\": {\n            \"name\": \"string\",\n            \"id\": 0,\n            \"tag\": \"string\"\n        }\n    },\n    \"order\": \"{{order}}\",\n    \"points\": [\n        {\n            \"type\": \"string\",\n            \"id\": 92,\n            \"name\": \"string\",\n            \"idService\":3\n        }\n    ]\n}"
				},
				"url": {
					"raw": "https://ms.desa.pickit.net/meli/api/v1.0/shipments/notifications",
					"protocol": "https",
					"host": [
						"ms",
						"desa",
						"pickit",
						"net"
					],
					"path": [
						"meli",
						"api",
						"v1.0",
						"shipments",
						"notifications"
					]
				}
			},
			"response": []
		}
	]
}